[
{
  "directory": "/home/dominiq/Pulpit/SEMESTR IV/cpp_course/lab2-matrix2d/zaj2Matrix/budowanie",
  "command": "/usr/bin/c++   --std=c++17 -Wall -Wextra -pedantic -g -std=c++17 -o CMakeFiles/zad2Matrix_dlaStudentow.dir/main.cpp.o -c \"/home/dominiq/Pulpit/SEMESTR IV/cpp_course/lab2-matrix2d/zaj2Matrix/main.cpp\"",
  "file": "/home/dominiq/Pulpit/SEMESTR IV/cpp_course/lab2-matrix2d/zaj2Matrix/main.cpp",
  "output": "CMakeFiles/zad2Matrix_dlaStudentow.dir/main.cpp.o"
},
{
  "directory": "/home/dominiq/Pulpit/SEMESTR IV/cpp_course/lab2-matrix2d/zaj2Matrix/budowanie",
  "command": "/usr/bin/c++   --std=c++17 -Wall -Wextra -pedantic -g -std=c++17 -o CMakeFiles/zad2Matrix_dlaStudentow.dir/matrix.cpp.o -c \"/home/dominiq/Pulpit/SEMESTR IV/cpp_course/lab2-matrix2d/zaj2Matrix/matrix.cpp\"",
  "file": "/home/dominiq/Pulpit/SEMESTR IV/cpp_course/lab2-matrix2d/zaj2Matrix/matrix.cpp",
  "output": "CMakeFiles/zad2Matrix_dlaStudentow.dir/matrix.cpp.o"
},
{
  "directory": "/home/dominiq/Pulpit/SEMESTR IV/cpp_course/lab2-matrix2d/zaj2Matrix/budowanie/tests",
  "command": "/usr/bin/c++  -isystem \"/home/dominiq/Pulpit/SEMESTR IV/cpp_course/lab2-matrix2d/zaj2Matrix/tests/lib/googletest/include\" -isystem \"/home/dominiq/Pulpit/SEMESTR IV/cpp_course/lab2-matrix2d/zaj2Matrix/tests/lib/googletest\" --std=c++17 -Wall -Wextra -pedantic -g -std=c++17 -o CMakeFiles/tests.dir/matrixTests.cpp.o -c \"/home/dominiq/Pulpit/SEMESTR IV/cpp_course/lab2-matrix2d/zaj2Matrix/tests/matrixTests.cpp\"",
  "file": "/home/dominiq/Pulpit/SEMESTR IV/cpp_course/lab2-matrix2d/zaj2Matrix/tests/matrixTests.cpp",
  "output": "tests/CMakeFiles/tests.dir/matrixTests.cpp.o"
},
{
  "directory": "/home/dominiq/Pulpit/SEMESTR IV/cpp_course/lab2-matrix2d/zaj2Matrix/budowanie/tests",
  "command": "/usr/bin/c++  -isystem \"/home/dominiq/Pulpit/SEMESTR IV/cpp_course/lab2-matrix2d/zaj2Matrix/tests/lib/googletest/include\" -isystem \"/home/dominiq/Pulpit/SEMESTR IV/cpp_course/lab2-matrix2d/zaj2Matrix/tests/lib/googletest\" --std=c++17 -Wall -Wextra -pedantic -g -std=c++17 -o CMakeFiles/tests.dir/__/matrix.cpp.o -c \"/home/dominiq/Pulpit/SEMESTR IV/cpp_course/lab2-matrix2d/zaj2Matrix/matrix.cpp\"",
  "file": "/home/dominiq/Pulpit/SEMESTR IV/cpp_course/lab2-matrix2d/zaj2Matrix/matrix.cpp",
  "output": "tests/CMakeFiles/tests.dir/__/matrix.cpp.o"
},
{
  "directory": "/home/dominiq/Pulpit/SEMESTR IV/cpp_course/lab2-matrix2d/zaj2Matrix/budowanie/tests/lib/googlemock",
  "command": "/usr/bin/c++  -I\"/home/dominiq/Pulpit/SEMESTR IV/cpp_course/lab2-matrix2d/zaj2Matrix/tests/lib/googlemock/include\" -I\"/home/dominiq/Pulpit/SEMESTR IV/cpp_course/lab2-matrix2d/zaj2Matrix/tests/lib/googlemock\" -isystem \"/home/dominiq/Pulpit/SEMESTR IV/cpp_course/lab2-matrix2d/zaj2Matrix/tests/lib/googletest/include\" -isystem \"/home/dominiq/Pulpit/SEMESTR IV/cpp_course/lab2-matrix2d/zaj2Matrix/tests/lib/googletest\" --std=c++17 -Wall -Wextra -pedantic -g -std=c++17 -Wall -Wshadow -Wno-error=dangling-else -DGTEST_HAS_PTHREAD=1 -fexceptions -Wextra -Wno-unused-parameter -Wno-missing-field-initializers -o CMakeFiles/gmock.dir/src/gmock-all.cc.o -c \"/home/dominiq/Pulpit/SEMESTR IV/cpp_course/lab2-matrix2d/zaj2Matrix/tests/lib/googlemock/src/gmock-all.cc\"",
  "file": "/home/dominiq/Pulpit/SEMESTR IV/cpp_course/lab2-matrix2d/zaj2Matrix/tests/lib/googlemock/src/gmock-all.cc",
  "output": "tests/lib/googlemock/CMakeFiles/gmock.dir/src/gmock-all.cc.o"
},
{
  "directory": "/home/dominiq/Pulpit/SEMESTR IV/cpp_course/lab2-matrix2d/zaj2Matrix/budowanie/tests/lib/googlemock",
  "command": "/usr/bin/c++  -isystem \"/home/dominiq/Pulpit/SEMESTR IV/cpp_course/lab2-matrix2d/zaj2Matrix/tests/lib/googlemock/include\" -isystem \"/home/dominiq/Pulpit/SEMESTR IV/cpp_course/lab2-matrix2d/zaj2Matrix/tests/lib/googlemock\" -isystem \"/home/dominiq/Pulpit/SEMESTR IV/cpp_course/lab2-matrix2d/zaj2Matrix/tests/lib/googletest/include\" -isystem \"/home/dominiq/Pulpit/SEMESTR IV/cpp_course/lab2-matrix2d/zaj2Matrix/tests/lib/googletest\" --std=c++17 -Wall -Wextra -pedantic -g -std=c++17 -Wall -Wshadow -Wno-error=dangling-else -DGTEST_HAS_PTHREAD=1 -fexceptions -Wextra -Wno-unused-parameter -Wno-missing-field-initializers -o CMakeFiles/gmock_main.dir/src/gmock_main.cc.o -c \"/home/dominiq/Pulpit/SEMESTR IV/cpp_course/lab2-matrix2d/zaj2Matrix/tests/lib/googlemock/src/gmock_main.cc\"",
  "file": "/home/dominiq/Pulpit/SEMESTR IV/cpp_course/lab2-matrix2d/zaj2Matrix/tests/lib/googlemock/src/gmock_main.cc",
  "output": "tests/lib/googlemock/CMakeFiles/gmock_main.dir/src/gmock_main.cc.o"
},
{
  "directory": "/home/dominiq/Pulpit/SEMESTR IV/cpp_course/lab2-matrix2d/zaj2Matrix/budowanie/tests/lib/googletest",
  "command": "/usr/bin/c++  -I\"/home/dominiq/Pulpit/SEMESTR IV/cpp_course/lab2-matrix2d/zaj2Matrix/tests/lib/googletest/include\" -I\"/home/dominiq/Pulpit/SEMESTR IV/cpp_course/lab2-matrix2d/zaj2Matrix/tests/lib/googletest\" --std=c++17 -Wall -Wextra -pedantic -g -std=c++17 -Wall -Wshadow -Wno-error=dangling-else -DGTEST_HAS_PTHREAD=1 -fexceptions -Wextra -Wno-unused-parameter -Wno-missing-field-initializers -o CMakeFiles/gtest.dir/src/gtest-all.cc.o -c \"/home/dominiq/Pulpit/SEMESTR IV/cpp_course/lab2-matrix2d/zaj2Matrix/tests/lib/googletest/src/gtest-all.cc\"",
  "file": "/home/dominiq/Pulpit/SEMESTR IV/cpp_course/lab2-matrix2d/zaj2Matrix/tests/lib/googletest/src/gtest-all.cc",
  "output": "tests/lib/googletest/CMakeFiles/gtest.dir/src/gtest-all.cc.o"
},
{
  "directory": "/home/dominiq/Pulpit/SEMESTR IV/cpp_course/lab2-matrix2d/zaj2Matrix/budowanie/tests/lib/googletest",
  "command": "/usr/bin/c++  -isystem \"/home/dominiq/Pulpit/SEMESTR IV/cpp_course/lab2-matrix2d/zaj2Matrix/tests/lib/googletest/include\" -isystem \"/home/dominiq/Pulpit/SEMESTR IV/cpp_course/lab2-matrix2d/zaj2Matrix/tests/lib/googletest\" --std=c++17 -Wall -Wextra -pedantic -g -std=c++17 -Wall -Wshadow -Wno-error=dangling-else -DGTEST_HAS_PTHREAD=1 -fexceptions -Wextra -Wno-unused-parameter -Wno-missing-field-initializers -o CMakeFiles/gtest_main.dir/src/gtest_main.cc.o -c \"/home/dominiq/Pulpit/SEMESTR IV/cpp_course/lab2-matrix2d/zaj2Matrix/tests/lib/googletest/src/gtest_main.cc\"",
  "file": "/home/dominiq/Pulpit/SEMESTR IV/cpp_course/lab2-matrix2d/zaj2Matrix/tests/lib/googletest/src/gtest_main.cc",
  "output": "tests/lib/googletest/CMakeFiles/gtest_main.dir/src/gtest_main.cc.o"
}
]